…
``` r
res1 <- dat_new %>%
        group_by(time, temp) %>%
        summarise(MotilitY = mean(motility), 
            SD = sd(motility))
res1 <- res1 %>%
        mutate(Lower = MotilitY - SD, Upper = MotilitY + SD) %>%
        mutate(Lower = Lower * (Lower >= 0)) 
res1 <- within(res1, xval <- xx)

res1
```

    # A tibble: 21 × 7
    # Groups:   time [7]
       time  temp  MotilitY    SD Lower Upper  xval
       <ord> <ord>    <dbl> <dbl> <dbl> <dbl> <dbl>
     1 30s   LT       90     6.40  83.6 96.4  0.833
     2 30s   MT       91.7   7.49  84.2 99.2  1    
     3 30s   HT       87.1   5.42  81.7 92.5  1.17 
     4 60s   LT       58.8  11.3   47.4 70.1  1.83 
     5 60s   MT       68.3  11.1   57.2 79.5  2    
     6 60s   HT       67.5  14.8   52.7 82.3  2.17 
     7 90s   LT       25.4  12.9   12.5 38.3  2.83 
     8 90s   MT       30.8  12.4   18.4 43.2  3    
     9 90s   HT       37.5  11.2   26.3 48.7  3.17 
    10 120s  LT        2.58  3.32   0    5.90 3.83 
    # ℹ 11 more rows
…
``` r
res1 
```

    # A tibble: 21 × 7
    # Groups:   time [7]
       time  temp  MotilitY    SD Lower Upper  xval
       <ord> <ord>    <dbl> <dbl> <dbl> <dbl> <dbl>
     1 30s   LT       90     6.40  83.6 96.4  0.833
     2 30s   MT       91.7   7.49  84.2 99.2  1    
     3 30s   HT       87.1   5.42  81.7 92.5  1.17 
     4 60s   LT       58.8  11.3   47.4 70.1  1.83 
     5 60s   MT       68.3  11.1   57.2 79.5  2    
     6 60s   HT       67.5  14.8   52.7 82.3  2.17 
     7 90s   LT       25.4  12.9   12.5 38.3  2.83 
     8 90s   MT       30.8  12.4   18.4 43.2  3    
     9 90s   HT       37.5  11.2   26.3 48.7  3.17 
    10 120s  LT        2.58  3.32   0    5.90 3.83 
    # ℹ 11 more rows
…
